%YAML 1.1
%TAG !u! tag:unity3d.com,2011:
--- !u!114 &11400000
MonoBehaviour:
  m_ObjectHideFlags: 0
  m_CorrespondingSourceObject: {fileID: 0}
  m_PrefabInternal: {fileID: 0}
  m_GameObject: {fileID: 0}
  m_Enabled: 1
  m_EditorHideFlags: 0
  m_Script: {fileID: 0}
  m_Name: GameResource_Citizen_Output_Solder_1
  m_EditorClassIdentifier: Assembly-CSharp::GameResourceData
  mFood: 0
  mWood: 0
  mStone: 0
  mIron: 0
  mMoney: 0
  mSword: 0
  mBow: 0
  mPower: 1
  mVictoryPoint: 0
